#
#
#

newmtl _SoulSpear_MAT
illum 2
Ka 0.000000 0.000000 0.000000
Kd 0.800000 0.800000 0.800000
Ks 0.500000 0.500000 0.500000
Ns 20.000000
map_Kd soulspear_diffuse.png
map_Ks soulspear_specular.png
bump soulspear_normal.png
