^C:\USERS\S171699\DESKTOP\ASSIGNMENT\GRAPHICS\GRAPHICS C++\GRAPHICSENGINE\GLFW3\X64\DEBUG\CONTEXT.OBJ|C:\USERS\S171699\DESKTOP\ASSIGNMENT\GRAPHICS\GRAPHICS C++\GRAPHICSENGINE\GLFW3\X64\DEBUG\EGL_CONTEXT.OBJ|C:\USERS\S171699\DESKTOP\ASSIGNMENT\GRAPHICS\GRAPHICS C++\GRAPHICSENGINE\GLFW3\X64\DEBUG\INIT.OBJ|C:\USERS\S171699\DESKTOP\ASSIGNMENT\GRAPHICS\GRAPHICS C++\GRAPHICSENGINE\GLFW3\X64\DEBUG\INPUT.OBJ|C:\USERS\S171699\DESKTOP\ASSIGNMENT\GRAPHICS\GRAPHICS C++\GRAPHICSENGINE\GLFW3\X64\DEBUG\MONITOR.OBJ|C:\USERS\S171699\DESKTOP\ASSIGNMENT\GRAPHICS\GRAPHICS C++\GRAPHICSENGINE\GLFW3\X64\DEBUG\VULKAN.OBJ|C:\USERS\S171699\DESKTOP\ASSIGNMENT\GRAPHICS\GRAPHICS C++\GRAPHICSENGINE\GLFW3\X64\DEBUG\WGL_CONTEXT.OBJ|C:\USERS\S171699\DESKTOP\ASSIGNMENT\GRAPHICS\GRAPHICS C++\GRAPHICSENGINE\GLFW3\X64\DEBUG\WIN32_INIT.OBJ|C:\USERS\S171699\DESKTOP\ASSIGNMENT\GRAPHICS\GRAPHICS C++\GRAPHICSENGINE\GLFW3\X64\DEBUG\WIN32_JOYSTICK.OBJ|C:\USERS\S171699\DESKTOP\ASSIGNMENT\GRAPHICS\GRAPHICS C++\GRAPHICSENGINE\GLFW3\X64\DEBUG\WIN32_MONITOR.OBJ|C:\USERS\S171699\DESKTOP\ASSIGNMENT\GRAPHICS\GRAPHICS C++\GRAPHICSENGINE\GLFW3\X64\DEBUG\WIN32_TIME.OBJ|C:\USERS\S171699\DESKTOP\ASSIGNMENT\GRAPHICS\GRAPHICS C++\GRAPHICSENGINE\GLFW3\X64\DEBUG\WIN32_TLS.OBJ|C:\USERS\S171699\DESKTOP\ASSIGNMENT\GRAPHICS\GRAPHICS C++\GRAPHICSENGINE\GLFW3\X64\DEBUG\WIN32_WINDOW.OBJ|C:\USERS\S171699\DESKTOP\ASSIGNMENT\GRAPHICS\GRAPHICS C++\GRAPHICSENGINE\GLFW3\X64\DEBUG\WINDOW.OBJ|C:\USERS\S171699\DESKTOP\ASSIGNMENT\GRAPHICS\GRAPHICS C++\GRAPHICSENGINE\GLFW3\X64\DEBUG\XKB_UNICODE.OBJ
C:\WINDOWS\GLOBALIZATION\SORTING\SORTDEFAULT.NLS
C:\USERS\S171699\DESKTOP\ASSIGNMENT\GRAPHICS\GRAPHICS C++\GRAPHICSENGINE\GLFW3\X64\DEBUG\CONTEXT.OBJ
C:\WINDOWS\SYSTEM32\TZRES.DLL
C:\USERS\S171699\DESKTOP\ASSIGNMENT\GRAPHICS\GRAPHICS C++\GRAPHICSENGINE\GLFW3\X64\DEBUG\EGL_CONTEXT.OBJ
C:\USERS\S171699\DESKTOP\ASSIGNMENT\GRAPHICS\GRAPHICS C++\GRAPHICSENGINE\GLFW3\X64\DEBUG\INIT.OBJ
C:\USERS\S171699\DESKTOP\ASSIGNMENT\GRAPHICS\GRAPHICS C++\GRAPHICSENGINE\GLFW3\X64\DEBUG\INPUT.OBJ
C:\USERS\S171699\DESKTOP\ASSIGNMENT\GRAPHICS\GRAPHICS C++\GRAPHICSENGINE\GLFW3\X64\DEBUG\MONITOR.OBJ
C:\USERS\S171699\DESKTOP\ASSIGNMENT\GRAPHICS\GRAPHICS C++\GRAPHICSENGINE\GLFW3\X64\DEBUG\VULKAN.OBJ
C:\USERS\S171699\DESKTOP\ASSIGNMENT\GRAPHICS\GRAPHICS C++\GRAPHICSENGINE\GLFW3\X64\DEBUG\WGL_CONTEXT.OBJ
C:\USERS\S171699\DESKTOP\ASSIGNMENT\GRAPHICS\GRAPHICS C++\GRAPHICSENGINE\GLFW3\X64\DEBUG\WIN32_INIT.OBJ
C:\USERS\S171699\DESKTOP\ASSIGNMENT\GRAPHICS\GRAPHICS C++\GRAPHICSENGINE\GLFW3\X64\DEBUG\WIN32_JOYSTICK.OBJ
C:\USERS\S171699\DESKTOP\ASSIGNMENT\GRAPHICS\GRAPHICS C++\GRAPHICSENGINE\GLFW3\X64\DEBUG\WIN32_MONITOR.OBJ
C:\USERS\S171699\DESKTOP\ASSIGNMENT\GRAPHICS\GRAPHICS C++\GRAPHICSENGINE\GLFW3\X64\DEBUG\WIN32_TIME.OBJ
C:\USERS\S171699\DESKTOP\ASSIGNMENT\GRAPHICS\GRAPHICS C++\GRAPHICSENGINE\GLFW3\X64\DEBUG\WIN32_TLS.OBJ
C:\USERS\S171699\DESKTOP\ASSIGNMENT\GRAPHICS\GRAPHICS C++\GRAPHICSENGINE\GLFW3\X64\DEBUG\WIN32_WINDOW.OBJ
C:\USERS\S171699\DESKTOP\ASSIGNMENT\GRAPHICS\GRAPHICS C++\GRAPHICSENGINE\GLFW3\X64\DEBUG\WINDOW.OBJ
C:\USERS\S171699\DESKTOP\ASSIGNMENT\GRAPHICS\GRAPHICS C++\GRAPHICSENGINE\GLFW3\X64\DEBUG\XKB_UNICODE.OBJ
^C:\USERS\ADRIAN\DESKTOP\ASSIGNMENT\GRAPHICS\GRAPHICS C++\GRAPHICSENGINE\GLFW3\X64\DEBUG\CONTEXT.OBJ|C:\USERS\ADRIAN\DESKTOP\ASSIGNMENT\GRAPHICS\GRAPHICS C++\GRAPHICSENGINE\GLFW3\X64\DEBUG\EGL_CONTEXT.OBJ|C:\USERS\ADRIAN\DESKTOP\ASSIGNMENT\GRAPHICS\GRAPHICS C++\GRAPHICSENGINE\GLFW3\X64\DEBUG\INIT.OBJ|C:\USERS\ADRIAN\DESKTOP\ASSIGNMENT\GRAPHICS\GRAPHICS C++\GRAPHICSENGINE\GLFW3\X64\DEBUG\INPUT.OBJ|C:\USERS\ADRIAN\DESKTOP\ASSIGNMENT\GRAPHICS\GRAPHICS C++\GRAPHICSENGINE\GLFW3\X64\DEBUG\MONITOR.OBJ|C:\USERS\ADRIAN\DESKTOP\ASSIGNMENT\GRAPHICS\GRAPHICS C++\GRAPHICSENGINE\GLFW3\X64\DEBUG\VULKAN.OBJ|C:\USERS\ADRIAN\DESKTOP\ASSIGNMENT\GRAPHICS\GRAPHICS C++\GRAPHICSENGINE\GLFW3\X64\DEBUG\WGL_CONTEXT.OBJ|C:\USERS\ADRIAN\DESKTOP\ASSIGNMENT\GRAPHICS\GRAPHICS C++\GRAPHICSENGINE\GLFW3\X64\DEBUG\WIN32_INIT.OBJ|C:\USERS\ADRIAN\DESKTOP\ASSIGNMENT\GRAPHICS\GRAPHICS C++\GRAPHICSENGINE\GLFW3\X64\DEBUG\WIN32_JOYSTICK.OBJ|C:\USERS\ADRIAN\DESKTOP\ASSIGNMENT\GRAPHICS\GRAPHICS C++\GRAPHICSENGINE\GLFW3\X64\DEBUG\WIN32_MONITOR.OBJ|C:\USERS\ADRIAN\DESKTOP\ASSIGNMENT\GRAPHICS\GRAPHICS C++\GRAPHICSENGINE\GLFW3\X64\DEBUG\WIN32_TIME.OBJ|C:\USERS\ADRIAN\DESKTOP\ASSIGNMENT\GRAPHICS\GRAPHICS C++\GRAPHICSENGINE\GLFW3\X64\DEBUG\WIN32_TLS.OBJ|C:\USERS\ADRIAN\DESKTOP\ASSIGNMENT\GRAPHICS\GRAPHICS C++\GRAPHICSENGINE\GLFW3\X64\DEBUG\WIN32_WINDOW.OBJ|C:\USERS\ADRIAN\DESKTOP\ASSIGNMENT\GRAPHICS\GRAPHICS C++\GRAPHICSENGINE\GLFW3\X64\DEBUG\WINDOW.OBJ|C:\USERS\ADRIAN\DESKTOP\ASSIGNMENT\GRAPHICS\GRAPHICS C++\GRAPHICSENGINE\GLFW3\X64\DEBUG\XKB_UNICODE.OBJ
C:\USERS\ADRIAN\DESKTOP\ASSIGNMENT\GRAPHICS\GRAPHICS C++\GRAPHICSENGINE\GLFW3\X64\DEBUG\CONTEXT.OBJ
C:\WINDOWS\SYSTEM32\TZRES.DLL
C:\USERS\ADRIAN\DESKTOP\ASSIGNMENT\GRAPHICS\GRAPHICS C++\GRAPHICSENGINE\GLFW3\X64\DEBUG\EGL_CONTEXT.OBJ
C:\USERS\ADRIAN\DESKTOP\ASSIGNMENT\GRAPHICS\GRAPHICS C++\GRAPHICSENGINE\GLFW3\X64\DEBUG\INIT.OBJ
C:\USERS\ADRIAN\DESKTOP\ASSIGNMENT\GRAPHICS\GRAPHICS C++\GRAPHICSENGINE\GLFW3\X64\DEBUG\INPUT.OBJ
C:\USERS\ADRIAN\DESKTOP\ASSIGNMENT\GRAPHICS\GRAPHICS C++\GRAPHICSENGINE\GLFW3\X64\DEBUG\MONITOR.OBJ
C:\USERS\ADRIAN\DESKTOP\ASSIGNMENT\GRAPHICS\GRAPHICS C++\GRAPHICSENGINE\GLFW3\X64\DEBUG\VULKAN.OBJ
C:\USERS\ADRIAN\DESKTOP\ASSIGNMENT\GRAPHICS\GRAPHICS C++\GRAPHICSENGINE\GLFW3\X64\DEBUG\WGL_CONTEXT.OBJ
C:\USERS\ADRIAN\DESKTOP\ASSIGNMENT\GRAPHICS\GRAPHICS C++\GRAPHICSENGINE\GLFW3\X64\DEBUG\WIN32_INIT.OBJ
C:\USERS\ADRIAN\DESKTOP\ASSIGNMENT\GRAPHICS\GRAPHICS C++\GRAPHICSENGINE\GLFW3\X64\DEBUG\WIN32_JOYSTICK.OBJ
C:\USERS\ADRIAN\DESKTOP\ASSIGNMENT\GRAPHICS\GRAPHICS C++\GRAPHICSENGINE\GLFW3\X64\DEBUG\WIN32_MONITOR.OBJ
C:\USERS\ADRIAN\DESKTOP\ASSIGNMENT\GRAPHICS\GRAPHICS C++\GRAPHICSENGINE\GLFW3\X64\DEBUG\WIN32_TIME.OBJ
C:\USERS\ADRIAN\DESKTOP\ASSIGNMENT\GRAPHICS\GRAPHICS C++\GRAPHICSENGINE\GLFW3\X64\DEBUG\WIN32_TLS.OBJ
C:\USERS\ADRIAN\DESKTOP\ASSIGNMENT\GRAPHICS\GRAPHICS C++\GRAPHICSENGINE\GLFW3\X64\DEBUG\WIN32_WINDOW.OBJ
C:\USERS\ADRIAN\DESKTOP\ASSIGNMENT\GRAPHICS\GRAPHICS C++\GRAPHICSENGINE\GLFW3\X64\DEBUG\WINDOW.OBJ
C:\USERS\ADRIAN\DESKTOP\ASSIGNMENT\GRAPHICS\GRAPHICS C++\GRAPHICSENGINE\GLFW3\X64\DEBUG\XKB_UNICODE.OBJ
C:\WINDOWS\GLOBALIZATION\SORTING\SORTDEFAULT.NLS
